Row,X,Y,Z,R
RPSI2,171,92,265,0
LPSI2,273,92,275,0
LPSI,231,93,271,0
RPSI,136,96,276,0
RASI2,2,119,134,0
RASI,20,132,110,0
LASI,291,135,46,0
LASI2,259,141,37,0
RHJC,80,206,172,23
LHJC,260,201,143,27
PSYM,165,213,98,0
RASI_eos,36,155,128,0
LASI_eos,291,143,75,0
